…
  ## group by plate ID and sample ID 
  group_by(plate.ID, Sample_ID) %>%

  ## calculate mean of spikes per plate and sample 
  ## ungroup by Sample_ID so the next calculation is only done grouped by Plate 
  mutate(Filter_Cq = mean(Cq)) %>% 
  ungroup(Sample_ID) %>%

  ## calculate difference from plate's Cq value 
  mutate(Cq_diff = Filter_Cq - Filter_Cq[grepl("pos", Sample_ID, ignore.case = TRUE)]) %>%
  ungroup(); spike_samples
```

    ## # A tibble: 480 × 10
    ##    plate.ID    Well  Fluor Target Content Sample_ID    Cq Starting Quantity (S…¹
    ##    <chr>       <chr> <chr> <chr>  <chr>   <chr>     <dbl> <lgl>                 
    ##  1 26 AUG 202… G01   SYBR  Libra… Unkn    1/17/24_…  10.5 NA                    
    ##  2 26 AUG 202… G02   SYBR  Libra… Unkn    1/17/24_…  10.6 NA                    
    ##  3 26 AUG 202… G03   SYBR  Libra… Unkn    1/17/24_…  10.8 NA                    
    ##  4 26 AUG 202… G04   SYBR  Libra… Unkn    1/17/24_…  10.8 NA                    
    ##  5 26 AUG 202… G05   SYBR  Libra… Unkn    1/17/24_…  10.5 NA                    
    ##  6 26 AUG 202… G06   SYBR  Libra… Unkn    1/17/24_…  11.0 NA                    
    ##  7 26 AUG 202… G07   SYBR  Libra… Unkn    1/17/24_…  10.8 NA                    
    ##  8 26 AUG 202… G08   SYBR  Libra… Unkn    1/17/24_…  11.0 NA                    
    ##  9 26 AUG 202… G09   SYBR  Libra… Unkn    1/17/24_…  10.7 NA                    
    ## 10 26 AUG 202… G10   SYBR  Libra… Unkn    1/18/24_…  10.9 NA                    
    ## # ℹ 470 more rows
    ## # ℹ abbreviated name: ¹​`Starting Quantity (SQ)`
    ## # ℹ 2 more variables: Filter_Cq <dbl>, Cq_diff <dbl>
…
